# Blender v2.67 (sub 0) OBJ File: ''
# www.blender.org
mtllib color_chooser.mtl
o Cube
v 0.010000 -1.000000 -1.000000
v 0.010000 -1.000000 1.000000
v -0.010000 -1.000000 1.000000
v -0.010000 -1.000000 -1.000000
v 0.010000 1.000000 -0.999999
v 0.010000 1.000000 1.000001
v -0.010000 1.000000 1.000000
v -0.010000 1.000000 -1.000000
v 0.010000 -1.000000 -1.000000
v 0.010000 -1.000000 1.000000
v -0.010000 -1.000000 1.000000
v -0.010000 -1.000000 -1.000000
v 0.010000 1.000000 -0.999999
v 0.010000 1.000000 1.000001
v -0.010000 1.000000 1.000000
v -0.010000 1.000000 -1.000000
vt 0.999900 0.000100
vt 0.999900 0.999900
vt 0.000100 0.999900
vt 0.000100 0.000100
vt 0.000000 0.000000
usemtl ColorWheel
s off
f 9/1 13/2 14/3 10/4
usemtl NoMaterial
f 1/5 2/5 3/5 4/5
f 5/5 8/5 7/5 6/5
f 1/5 5/5 6/5 2/5
f 2/5 6/5 7/5 3/5
f 3/5 7/5 8/5 4/5
f 5/5 1/5 4/5 8/5
f 9/5 10/5 11/5 12/5
f 13/5 16/5 15/5 14/5
f 10/5 14/5 15/5 11/5
f 11/5 15/5 16/5 12/5
f 13/5 9/5 12/5 16/5
